^C:\USERS\USER\DESKTOP\NYS1023\1099_성실한_개미\X64\DEBUG\1099_성실한_개미.OBJ
C:\USERS\USER\DESKTOP\NYS1023\X64\DEBUG\1099_성실한_개미.ILK
C:\USERS\USER\DESKTOP\NYS1023\X64\DEBUG\1099_성실한_개미.EXE
C:\USERS\USER\DESKTOP\NYS1023\X64\DEBUG\1099_성실한_개미.PDB
