^C:\USERS\ADMINISTRATOR\DESKTOP\NAM1023\PROGRAMMING\HERO.CPP|C:\USERS\ADMINISTRATOR\DESKTOP\NAM1023\PROGRAMMING\MAIN.CPP
C:\USERS\ADMINISTRATOR\DESKTOP\NAM1023\PROGRAMMING\X64\DEBUG\VC142.PDB
C:\USERS\ADMINISTRATOR\DESKTOP\NAM1023\PROGRAMMING\X64\DEBUG\VC142.IDB
C:\USERS\ADMINISTRATOR\DESKTOP\NAM1023\PROGRAMMING\X64\DEBUG\MAIN.OBJ
^C:\USERS\ADMINISTRATOR\DESKTOP\NAM1023\PROGRAMMING\ACT.CPP|C:\USERS\ADMINISTRATOR\DESKTOP\NAM1023\PROGRAMMING\HERO.CPP|C:\USERS\ADMINISTRATOR\DESKTOP\NAM1023\PROGRAMMING\MAIN.CPP
C:\USERS\ADMINISTRATOR\DESKTOP\NAM1023\PROGRAMMING\X64\DEBUG\VC142.PDB
C:\USERS\ADMINISTRATOR\DESKTOP\NAM1023\PROGRAMMING\X64\DEBUG\VC142.IDB
C:\USERS\ADMINISTRATOR\DESKTOP\NAM1023\PROGRAMMING\X64\DEBUG\HERO.OBJ
C:\USERS\ADMINISTRATOR\DESKTOP\NAM1023\PROGRAMMING\X64\DEBUG\ACT.OBJ
^C:\USERS\ADMINISTRATOR\DESKTOP\NAM1023\PROGRAMMING\ACT.CPP
C:\USERS\ADMINISTRATOR\DESKTOP\NAM1023\PROGRAMMING\X64\DEBUG\ACT.OBJ
^C:\USERS\ADMINISTRATOR\DESKTOP\NAM1023\PROGRAMMING\HERO.CPP
C:\USERS\ADMINISTRATOR\DESKTOP\NAM1023\PROGRAMMING\X64\DEBUG\HERO.OBJ
